Prochaines étapes
…
---

# Web Scraping

```r
library(tidytext)
# Charger la table de Wikipédia (n'oubliez pas les libraries)
read_html("https://en.wikipedia.org/wiki/R_(programming_language)") %>%
  html_text() %>%
  tibble() %>%
  unnest_tokens(word, ".")
```

```
## # A tibble: 9,497 x 1
##    word                                       
##    <chr>                                      
##  1 r                                          
##  2 programming                                
##  3 language                                   
##  4 wikipediadocument.documentelement.classname
##  5 client                                     
##  6 js                                         
##  7 vector                                     
##  8 feature                                    
##  9 language                                   
## 10 in                                         
## # ... with 9,487 more rows
```
…
]

.pull-right4[

```
## # A tibble: 108 x 2
##    word            n
##    <chr>       <int>
##  1 output        200
##  2 mw            197
##  3 parser        197
##  4 retrieved      89
##  5 data           60
##  6 programming    51
##  7 hlist          49
##  8 navbox         48
##  9 december       47
## 10 language       42
## # ... with 98 more rows
```
…
